interactions:
- request:
    body: null
    headers:
      Accept:
      - '*/*'
      Accept-Encoding:
      - gzip, deflate, br
      Authorization:
      - Bearer 7DdfgMYZxv2bgKRY3mB4
      Connection:
      - keep-alive
      User-Agent:
      - python-requests/2.27.1
    method: GET
    uri: https://the-one-api.dev/v2/character?limit=10
  response:
    body:
      string: '{"docs":[{"_id":"5cd99d4bde30eff6ebccfbbe","height":"","race":"Human","gender":"Female","birth":"","spouse":"Belemir","death":"","realm":"","hair":"","name":"Adanel","wikiUrl":"http://lotr.wikia.com//wiki/Adanel"},{"_id":"5cd99d4bde30eff6ebccfbbf","height":"","race":"Human","gender":"Male","birth":"Before
        ,TA 1944","spouse":"","death":"Late ,Third Age","realm":"","hair":"","name":"Adrahil
        I","wikiUrl":"http://lotr.wikia.com//wiki/Adrahil_I"},{"_id":"5cd99d4bde30eff6ebccfbc0","height":"","race":"Human","gender":"Male","birth":"TA
        2917","spouse":"Unnamed wife","death":"TA 3010","realm":"","hair":"","name":"Adrahil
        II","wikiUrl":"http://lotr.wikia.com//wiki/Adrahil_II"},{"_id":"5cd99d4bde30eff6ebccfbc1","height":"","race":"Elf","gender":"Male","birth":"YT
        during the ,Noontide of Valinor","spouse":"Loved ,Andreth but remained unmarried","death":"FA
        455","realm":"","hair":"Golden","name":"Aegnor","wikiUrl":"http://lotr.wikia.com//wiki/Aegnor"},{"_id":"5cd99d4bde30eff6ebccfbc2","height":"","race":"Human","gender":"Female","birth":"Mid
        ,First Age","spouse":"Brodda","death":"FA 495","realm":"","hair":"","name":"Aerin","wikiUrl":"http://lotr.wikia.com//wiki/Aerin"},{"_id":"5cd99d4bde30eff6ebccfbc3","height":"","race":"Human","gender":"Female","birth":"Between
        ,SA 700, and ,SA 750","spouse":"Orchaldor","death":"Early ,Second Age","realm":"","hair":"","name":"Ailinel","wikiUrl":"http://lotr.wikia.com//wiki/Ailinel"},{"_id":"5cd99d4bde30eff6ebccfbc4","height":"","race":"Human","gender":"Male","birth":"TA
        2827","spouse":"Unnamed wife","death":"TA 2932","realm":"","hair":"","name":"Aglahad","wikiUrl":"http://lotr.wikia.com//wiki/Aglahad"},{"_id":"5cd99d4bde30eff6ebccfbc5","height":"","race":"Human","gender":"Male","birth":"Late
        ,First Age","spouse":"None known","death":"FA 489","realm":"","hair":"","name":"Algund","wikiUrl":"http://lotr.wikia.com//wiki/Algund"},{"_id":"5cd99d4bde30eff6ebccfbc6","height":"","race":"Human","gender":"Female","birth":"Between
        ,SA 700, and ,SA 750","spouse":"","death":"Early ,Second Age","realm":"","hair":"","name":"Almiel","wikiUrl":"http://lotr.wikia.com//wiki/Almiel"},{"_id":"5cd99d4bde30eff6ebccfbc7","height":"","race":"Human","gender":"Male","birth":"TA
        3017","spouse":"","death":"FO 95","realm":"","hair":"","name":"Alphros","wikiUrl":"http://lotr.wikia.com//wiki/Alphros"}],"total":933,"limit":10,"offset":0,"page":1,"pages":94}'
    headers:
      Access-Control-Allow-Origin:
      - '*'
      Connection:
      - Keep-Alive
      Content-Length:
      - '2388'
      Content-Security-Policy:
      - 'default-src ''self'';base-uri ''self'';block-all-mixed-content;font-src ''self''
        https: data:;frame-ancestors ''self'';img-src ''self'' data:;object-src ''none'';script-src
        ''self'';script-src-attr ''none'';style-src ''self'' https: ''unsafe-inline'';upgrade-insecure-requests'
      Content-Type:
      - application/json; charset=utf-8
      Date:
      - Wed, 23 Mar 2022 16:45:10 GMT
      ETag:
      - W/"954-TqR8OOdH0ZyclLV8bCh9t/aMqEg"
      Expect-CT:
      - max-age=0
      Keep-Alive:
      - timeout=5, max=100
      Referrer-Policy:
      - no-referrer
      Server:
      - Apache/2.4.41 (Ubuntu)
      Strict-Transport-Security:
      - max-age=15552000; includeSubDomains
      X-Content-Type-Options:
      - nosniff
      X-DNS-Prefetch-Control:
      - 'off'
      X-Download-Options:
      - noopen
      X-Frame-Options:
      - SAMEORIGIN
      X-Permitted-Cross-Domain-Policies:
      - none
      X-RateLimit-Limit:
      - '100'
      X-RateLimit-Remaining:
      - '96'
      X-RateLimit-Reset:
      - '1648054160'
      X-XSS-Protection:
      - '0'
    status:
      code: 200
      message: OK
version: 1
