interactions:
- request:
    body: null
    headers:
      Accept:
      - '*/*'
      Accept-Encoding:
      - gzip, deflate, br
      Authorization:
      - Bearer 7DdfgMYZxv2bgKRY3mB4
      Connection:
      - keep-alive
      User-Agent:
      - python-requests/2.27.1
    method: GET
    uri: https://the-one-api.dev/v2/book?limit=1
  response:
    body:
      string: '{"docs":[{"_id":"5cf5805fb53e011a64671582","name":"The Fellowship Of
        The Ring"}],"total":3,"limit":1,"offset":0,"page":1,"pages":3}'
    headers:
      Access-Control-Allow-Origin:
      - '*'
      Connection:
      - Keep-Alive
      Content-Length:
      - '131'
      Content-Security-Policy:
      - 'default-src ''self'';base-uri ''self'';block-all-mixed-content;font-src ''self''
        https: data:;frame-ancestors ''self'';img-src ''self'' data:;object-src ''none'';script-src
        ''self'';script-src-attr ''none'';style-src ''self'' https: ''unsafe-inline'';upgrade-insecure-requests'
      Content-Type:
      - application/json; charset=utf-8
      Date:
      - Wed, 23 Mar 2022 17:18:33 GMT
      ETag:
      - W/"83-xoy1/NoV2aPt0obFDRmbEYBnYRg"
      Expect-CT:
      - max-age=0
      Keep-Alive:
      - timeout=5, max=100
      Referrer-Policy:
      - no-referrer
      Server:
      - Apache/2.4.41 (Ubuntu)
      Strict-Transport-Security:
      - max-age=15552000; includeSubDomains
      X-Content-Type-Options:
      - nosniff
      X-DNS-Prefetch-Control:
      - 'off'
      X-Download-Options:
      - noopen
      X-Frame-Options:
      - SAMEORIGIN
      X-Permitted-Cross-Domain-Policies:
      - none
      X-RateLimit-Limit:
      - '100'
      X-RateLimit-Remaining:
      - '93'
      X-RateLimit-Reset:
      - '1648055960'
      X-XSS-Protection:
      - '0'
    status:
      code: 200
      message: OK
- request:
    body: null
    headers:
      Accept:
      - '*/*'
      Accept-Encoding:
      - gzip, deflate, br
      Authorization:
      - Bearer 7DdfgMYZxv2bgKRY3mB4
      Connection:
      - keep-alive
      User-Agent:
      - python-requests/2.27.1
    method: GET
    uri: https://the-one-api.dev/v2/book?name=The+Fellowship+Of+The+Ring
  response:
    body:
      string: '{"docs":[{"_id":"5cf5805fb53e011a64671582","name":"The Fellowship Of
        The Ring"}],"total":1,"limit":1000,"offset":0,"page":1,"pages":1}'
    headers:
      Access-Control-Allow-Origin:
      - '*'
      Connection:
      - Keep-Alive
      Content-Length:
      - '134'
      Content-Security-Policy:
      - 'default-src ''self'';base-uri ''self'';block-all-mixed-content;font-src ''self''
        https: data:;frame-ancestors ''self'';img-src ''self'' data:;object-src ''none'';script-src
        ''self'';script-src-attr ''none'';style-src ''self'' https: ''unsafe-inline'';upgrade-insecure-requests'
      Content-Type:
      - application/json; charset=utf-8
      Date:
      - Wed, 23 Mar 2022 17:18:33 GMT
      ETag:
      - W/"86-I7v5qLZewBm6kqSZlRMWqSKHi1k"
      Expect-CT:
      - max-age=0
      Keep-Alive:
      - timeout=5, max=100
      Referrer-Policy:
      - no-referrer
      Server:
      - Apache/2.4.41 (Ubuntu)
      Strict-Transport-Security:
      - max-age=15552000; includeSubDomains
      X-Content-Type-Options:
      - nosniff
      X-DNS-Prefetch-Control:
      - 'off'
      X-Download-Options:
      - noopen
      X-Frame-Options:
      - SAMEORIGIN
      X-Permitted-Cross-Domain-Policies:
      - none
      X-RateLimit-Limit:
      - '100'
      X-RateLimit-Remaining:
      - '92'
      X-RateLimit-Reset:
      - '1648055960'
      X-XSS-Protection:
      - '0'
    status:
      code: 200
      message: OK
- request:
    body: null
    headers:
      Accept:
      - '*/*'
      Accept-Encoding:
      - gzip, deflate, br
      Authorization:
      - Bearer 7DdfgMYZxv2bgKRY3mB4
      Connection:
      - keep-alive
      User-Agent:
      - python-requests/2.27.1
    method: GET
    uri: https://the-one-api.dev/v2/book/5cf5805fb53e011a64671582
  response:
    body:
      string: '{"docs":[{"_id":"5cf5805fb53e011a64671582","name":"The Fellowship Of
        The Ring"}],"total":1,"limit":1000,"offset":0,"page":1,"pages":1}'
    headers:
      Access-Control-Allow-Origin:
      - '*'
      Connection:
      - Keep-Alive
      Content-Length:
      - '134'
      Content-Security-Policy:
      - 'default-src ''self'';base-uri ''self'';block-all-mixed-content;font-src ''self''
        https: data:;frame-ancestors ''self'';img-src ''self'' data:;object-src ''none'';script-src
        ''self'';script-src-attr ''none'';style-src ''self'' https: ''unsafe-inline'';upgrade-insecure-requests'
      Content-Type:
      - application/json; charset=utf-8
      Date:
      - Wed, 23 Mar 2022 17:18:34 GMT
      ETag:
      - W/"86-I7v5qLZewBm6kqSZlRMWqSKHi1k"
      Expect-CT:
      - max-age=0
      Keep-Alive:
      - timeout=5, max=100
      Referrer-Policy:
      - no-referrer
      Server:
      - Apache/2.4.41 (Ubuntu)
      Strict-Transport-Security:
      - max-age=15552000; includeSubDomains
      X-Content-Type-Options:
      - nosniff
      X-DNS-Prefetch-Control:
      - 'off'
      X-Download-Options:
      - noopen
      X-Frame-Options:
      - SAMEORIGIN
      X-Permitted-Cross-Domain-Policies:
      - none
      X-RateLimit-Limit:
      - '100'
      X-RateLimit-Remaining:
      - '91'
      X-RateLimit-Reset:
      - '1648055960'
      X-XSS-Protection:
      - '0'
    status:
      code: 200
      message: OK
- request:
    body: null
    headers:
      Accept:
      - '*/*'
      Accept-Encoding:
      - gzip, deflate, br
      Authorization:
      - Bearer 7DdfgMYZxv2bgKRY3mB4
      Connection:
      - keep-alive
      User-Agent:
      - python-requests/2.27.1
    method: GET
    uri: https://the-one-api.dev/v2/book/5cf5805fb53e011a64671582/chapter
  response:
    body:
      string: "{\"docs\":[{\"_id\":\"6091b6d6d58360f988133b8b\",\"chapterName\":\"A
        Long-expected Party\"},{\"_id\":\"6091b6d6d58360f988133b8c\",\"chapterName\":\"The
        Shadow of the Past\"},{\"_id\":\"6091b6d6d58360f988133b8d\",\"chapterName\":\"Three
        is Company\"},{\"_id\":\"6091b6d6d58360f988133b8e\",\"chapterName\":\"A Short
        Cut to Mushrooms\"},{\"_id\":\"6091b6d6d58360f988133b8f\",\"chapterName\":\"A
        Conspiracy Unmasked\"},{\"_id\":\"6091b6d6d58360f988133b90\",\"chapterName\":\"The
        Old Forest\"},{\"_id\":\"6091b6d6d58360f988133b91\",\"chapterName\":\"In the
        House of Tom Bombadil\"},{\"_id\":\"6091b6d6d58360f988133b92\",\"chapterName\":\"Fog
        on the Barrow-Downs\"},{\"_id\":\"6091b6d6d58360f988133b93\",\"chapterName\":\"At
        the Sign of The Prancing Pony\"},{\"_id\":\"6091b6d6d58360f988133b94\",\"chapterName\":\"Strider\"},{\"_id\":\"6091b6d6d58360f988133b95\",\"chapterName\":\"A
        Knife in the Dark\"},{\"_id\":\"6091b6d6d58360f988133b96\",\"chapterName\":\"Flight
        to the Ford\"},{\"_id\":\"6091b6d6d58360f988133b97\",\"chapterName\":\"Many
        Meetings\"},{\"_id\":\"6091b6d6d58360f988133b98\",\"chapterName\":\"The Council
        of Elrond\"},{\"_id\":\"6091b6d6d58360f988133b99\",\"chapterName\":\"The Ring
        Goes South\"},{\"_id\":\"6091b6d6d58360f988133b9a\",\"chapterName\":\"A Journey
        in the Dark\"},{\"_id\":\"6091b6d6d58360f988133b9b\",\"chapterName\":\"The
        Bridge of Khazad-du\u0302m\"},{\"_id\":\"6091b6d6d58360f988133b9c\",\"chapterName\":\"Lothlo\u0301rien\"},{\"_id\":\"6091b6d6d58360f988133b9d\",\"chapterName\":\"The
        Mirror of Galadriel\"},{\"_id\":\"6091b6d6d58360f988133b9e\",\"chapterName\":\"Farewell
        to Lo\u0301rien\"},{\"_id\":\"6091b6d6d58360f988133b9f\",\"chapterName\":\"The
        Great River\"},{\"_id\":\"6091b6d6d58360f988133ba0\",\"chapterName\":\"The
        Breaking of the Fellowship\"}],\"total\":22,\"limit\":1000,\"offset\":0,\"page\":1,\"pages\":1}"
    headers:
      Access-Control-Allow-Origin:
      - '*'
      Connection:
      - Keep-Alive
      Content-Length:
      - '1653'
      Content-Security-Policy:
      - 'default-src ''self'';base-uri ''self'';block-all-mixed-content;font-src ''self''
        https: data:;frame-ancestors ''self'';img-src ''self'' data:;object-src ''none'';script-src
        ''self'';script-src-attr ''none'';style-src ''self'' https: ''unsafe-inline'';upgrade-insecure-requests'
      Content-Type:
      - application/json; charset=utf-8
      Date:
      - Wed, 23 Mar 2022 17:18:34 GMT
      ETag:
      - W/"675-iXg80ZsIdvczXhUXR6iRuH0S8jY"
      Expect-CT:
      - max-age=0
      Keep-Alive:
      - timeout=5, max=100
      Referrer-Policy:
      - no-referrer
      Server:
      - Apache/2.4.41 (Ubuntu)
      Strict-Transport-Security:
      - max-age=15552000; includeSubDomains
      X-Content-Type-Options:
      - nosniff
      X-DNS-Prefetch-Control:
      - 'off'
      X-Download-Options:
      - noopen
      X-Frame-Options:
      - SAMEORIGIN
      X-Permitted-Cross-Domain-Policies:
      - none
      X-RateLimit-Limit:
      - '100'
      X-RateLimit-Remaining:
      - '90'
      X-RateLimit-Reset:
      - '1648055960'
      X-XSS-Protection:
      - '0'
    status:
      code: 200
      message: OK
version: 1
