interactions:
- request:
    body: null
    headers:
      Accept:
      - '*/*'
      Accept-Encoding:
      - gzip, deflate, br
      Authorization:
      - Bearer 7DdfgMYZxv2bgKRY3mB4
      Connection:
      - keep-alive
      User-Agent:
      - python-requests/2.27.1
    method: GET
    uri: https://the-one-api.dev/v2/quote?limit=5
  response:
    body:
      string: '{"docs":[{"_id":"5cd96e05de30eff6ebcce7e9","dialog":"Deagol!","movie":"5cd95395de30eff6ebccde5d","character":"5cd99d4bde30eff6ebccfe9e","id":"5cd96e05de30eff6ebcce7e9"},{"_id":"5cd96e05de30eff6ebcce7ea","dialog":"Deagol!","movie":"5cd95395de30eff6ebccde5d","character":"5cd99d4bde30eff6ebccfe9e","id":"5cd96e05de30eff6ebcce7ea"},{"_id":"5cd96e05de30eff6ebcce7eb","dialog":"Deagol!","movie":"5cd95395de30eff6ebccde5d","character":"5cd99d4bde30eff6ebccfe9e","id":"5cd96e05de30eff6ebcce7eb"},{"_id":"5cd96e05de30eff6ebcce7ec","dialog":"Give
        us that! Deagol my love","movie":"5cd95395de30eff6ebccde5d","character":"5cd99d4bde30eff6ebccfe9e","id":"5cd96e05de30eff6ebcce7ec"},{"_id":"5cd96e05de30eff6ebcce7ed","dialog":"Why?","movie":"5cd95395de30eff6ebccde5d","character":"5cd99d4bde30eff6ebccfca7","id":"5cd96e05de30eff6ebcce7ed"}],"total":2390,"limit":5,"offset":0,"page":1,"pages":478}'
    headers:
      Access-Control-Allow-Origin:
      - '*'
      Connection:
      - Keep-Alive
      Content-Length:
      - '883'
      Content-Security-Policy:
      - 'default-src ''self'';base-uri ''self'';block-all-mixed-content;font-src ''self''
        https: data:;frame-ancestors ''self'';img-src ''self'' data:;object-src ''none'';script-src
        ''self'';script-src-attr ''none'';style-src ''self'' https: ''unsafe-inline'';upgrade-insecure-requests'
      Content-Type:
      - application/json; charset=utf-8
      Date:
      - Wed, 23 Mar 2022 16:55:24 GMT
      ETag:
      - W/"373-5EvWCV20P9XsKQBGfa0/kP3u1LU"
      Expect-CT:
      - max-age=0
      Keep-Alive:
      - timeout=5, max=100
      Referrer-Policy:
      - no-referrer
      Server:
      - Apache/2.4.41 (Ubuntu)
      Strict-Transport-Security:
      - max-age=15552000; includeSubDomains
      X-Content-Type-Options:
      - nosniff
      X-DNS-Prefetch-Control:
      - 'off'
      X-Download-Options:
      - noopen
      X-Frame-Options:
      - SAMEORIGIN
      X-Permitted-Cross-Domain-Policies:
      - none
      X-RateLimit-Limit:
      - '100'
      X-RateLimit-Remaining:
      - '93'
      X-RateLimit-Reset:
      - '1648054760'
      X-XSS-Protection:
      - '0'
    status:
      code: 200
      message: OK
version: 1
